Examen_Estadística_Computacional
…
# Ordene la base de datos de manera descendente con respecto a la variable Petal.Length e imprima las primeras 6 observaciones.
iris_tibble<-as_tibble(iris)
class(iris_tibble)

## [1] "tbl_df"     "tbl"        "data.frame"

arrange(iris_tibble, desc(Petal.Length))

## # A tibble: 150 x 5
##    Sepal.Length Sepal.Width Petal.Length Petal.Width Species  
##           <dbl>       <dbl>        <dbl>       <dbl> <fct>    
##  1          7.7         2.6          6.9         2.3 virginica
##  2          7.7         3.8          6.7         2.2 virginica
##  3          7.7         2.8          6.7         2   virginica
##  4          7.6         3            6.6         2.1 virginica
##  5          7.9         3.8          6.4         2   virginica
##  6          7.3         2.9          6.3         1.8 virginica
##  7          7.2         3.6          6.1         2.5 virginica
##  8          7.4         2.8          6.1         1.9 virginica
##  9          7.7         3            6.1         2.3 virginica
## 10          6.3         3.3          6           2.5 virginica
## # ... with 140 more rows
…
# g. Cree una nueva variable en donde se muestre el atributo Sepal.Length en milímetros e imprima las primeras 6 observaciones.
mutate(iris_tibble, Sepal.Length_mm = Sepal.Length * 10)

## # A tibble: 150 x 6
##    Sepal.Length Sepal.Width Petal.Length Petal.Width Species
##           <dbl>       <dbl>        <dbl>       <dbl> <fct>  
##  1          5.1         3.5          1.4         0.2 setosa 
##  2          4.9         3            1.4         0.2 setosa 
##  3          4.7         3.2          1.3         0.2 setosa 
##  4          4.6         3.1          1.5         0.2 setosa 
##  5          5           3.6          1.4         0.2 setosa 
##  6          5.4         3.9          1.7         0.4 setosa 
##  7          4.6         3.4          1.4         0.3 setosa 
##  8          5           3.4          1.5         0.2 setosa 
##  9          4.4         2.9          1.4         0.2 setosa 
## 10          4.9         3.1          1.5         0.1 setosa 
## # ... with 140 more rows, and 1 more variable: Sepal.Length_mm <dbl>
…
# h. Elimine las observaciones con valores faltantes en la variable Sepal.Width e indique el número de observaciones de la nueva base de datos.
iris_tibble %>% drop_na(Sepal.Length)

## # A tibble: 150 x 5
##    Sepal.Length Sepal.Width Petal.Length Petal.Width Species
##           <dbl>       <dbl>        <dbl>       <dbl> <fct>  
##  1          5.1         3.5          1.4         0.2 setosa 
##  2          4.9         3            1.4         0.2 setosa 
##  3          4.7         3.2          1.3         0.2 setosa 
##  4          4.6         3.1          1.5         0.2 setosa 
##  5          5           3.6          1.4         0.2 setosa 
##  6          5.4         3.9          1.7         0.4 setosa 
##  7          4.6         3.4          1.4         0.3 setosa 
##  8          5           3.4          1.5         0.2 setosa 
##  9          4.4         2.9          1.4         0.2 setosa 
## 10          4.9         3.1          1.5         0.1 setosa 
## # ... with 140 more rows
…
# 50 observaciones con setosa y 100 sin setosa todos en la variable sepal.lenghth no habia NAs

# i. ¿Cuál es la media de la variable Petal.Width para cada una de las especies (variable Species) de flores?

iris_byspecie<-group_by(iris_tibble, Species)
iris_byspecie

## # A tibble: 150 x 5
## # Groups:   Species [3]
##    Sepal.Length Sepal.Width Petal.Length Petal.Width Species
##           <dbl>       <dbl>        <dbl>       <dbl> <fct>  
##  1          5.1         3.5          1.4         0.2 setosa 
##  2          4.9         3            1.4         0.2 setosa 
##  3          4.7         3.2          1.3         0.2 setosa 
##  4          4.6         3.1          1.5         0.2 setosa 
##  5          5           3.6          1.4         0.2 setosa 
##  6          5.4         3.9          1.7         0.4 setosa 
##  7          4.6         3.4          1.4         0.3 setosa 
##  8          5           3.4          1.5         0.2 setosa 
##  9          4.4         2.9          1.4         0.2 setosa 
## 10          4.9         3.1          1.5         0.1 setosa 
## # ... with 140 more rows
…
